Data source for COVID-19 Cases | nyt-covid
…
        National level data located in us.csv

2. Preliminary Look at the Data

library(tidyverse)

counties <- read_csv("nyt/us-counties.csv")

states <- read_csv("nyt/us-states.csv")

us <- read_csv("nyt/us.csv")

2.1 County level data

# A tibble: 1,579,428 x 6
   date       county      state      fips  cases deaths
   <date>     <chr>       <chr>      <chr> <dbl>  <dbl>
 1 2020-01-21 Snohomish   Washington 53061     1      0
 2 2020-01-22 Snohomish   Washington 53061     1      0
 3 2020-01-23 Snohomish   Washington 53061     1      0
 4 2020-01-24 Cook        Illinois   17031     1      0
 5 2020-01-24 Snohomish   Washington 53061     1      0
 6 2020-01-25 Orange      California 06059     1      0
 7 2020-01-25 Cook        Illinois   17031     1      0
 8 2020-01-25 Snohomish   Washington 53061     1      0
 9 2020-01-26 Maricopa    Arizona    04013     1      0
10 2020-01-26 Los Angeles California 06037     1      0
# … with 1,579,418 more rows

2.2 State level data

# A tibble: 28,504 x 5
   date       state      fips  cases deaths
   <date>     <chr>      <chr> <dbl>  <dbl>
 1 2020-01-21 Washington 53        1      0
 2 2020-01-22 Washington 53        1      0
 3 2020-01-23 Washington 53        1      0
 4 2020-01-24 Illinois   17        1      0
 5 2020-01-24 Washington 53        1      0
 6 2020-01-25 California 06        1      0
 7 2020-01-25 Illinois   17        1      0
 8 2020-01-25 Washington 53        1      0
 9 2020-01-26 Arizona    04        1      0
10 2020-01-26 California 06        2      0
# … with 28,494 more rows

2.3 National level data

# A tibble: 560 x 3
   date       cases deaths
   <date>     <dbl>  <dbl>
 1 2020-01-21     1      0
 2 2020-01-22     1      0
 3 2020-01-23     1      0
 4 2020-01-24     2      0
 5 2020-01-25     3      0
 6 2020-01-26     5      0
 7 2020-01-27     5      0
 8 2020-01-28     5      0
 9 2020-01-29     5      0
10 2020-01-30     6      0
# … with 550 more rows
…
